simulation/test5.log
# vsim -cvgperinstance -vopt -voptargs="+acc" -coverage -sva -c -do " log -r /* ;coverage save -onexit vs_alg_cov5;run -all; exit" -wlf wave_file5.wlf -l test5.log -sv_seed random work.top "+UVM_TESTNAME=vs_alg_clr_cnt_drop_reg_test" "+UVM_MAX_QUIT_COUNT=1" "+UVM_VERBOSITY=UVM_LOW" -f message.f 
# Start time: 16:42:01 on Dec 04,2025
# ** Note: (vsim-8009) Loading existing optimized design _opt
# //  Questa Sim-64
# //  Version 2021.2_1 linux_x86_64 May 15 2021
# //
# //  Copyright 1991-2021 Mentor Graphics Corporation
# //  All Rights Reserved.
# //
# //  QuestaSim and its associated documentation contain trade
# //  secrets and commercial or financial information that are the property of
# //  Mentor Graphics Corporation and are privileged, confidential,
# //  and exempt from disclosure under the Freedom of Information Act,
# //  5 U.S.C. Section 552. Furthermore, this information
# //  is prohibited from disclosure under the Trade Secrets Act,
# //  18 U.S.C. Section 1905.
# //
# Loading sv_std.std
# Loading work.cfs_algn_if(fast)
# Loading work.cfs_apb_if(fast)
# Loading work.cfs_md_if(fast)
# Loading mtiUvm.uvm_pkg(fast)
# Loading work.cfs_algn_reg_pkg(fast)
# Loading work.uvm_ext_pkg(fast)
# Loading work.cfs_md_pkg(fast)
# Loading work.cfs_apb_pkg(fast)
# Loading work.cfs_algn_pkg(fast)
# Loading work.cfs_algn_test_pkg(fast)
# Loading mtiUvm.questa_uvm_pkg(fast)
# Loading work.top(fast)
# Loading work.cfs_apb_if(fast__2)
# Loading work.cfs_md_if(fast__3)
# Loading work.cfs_algn_if(fast__2)
# Loading work.cfs_aligner(fast)
# Loading work.cfs_aligner_core(fast)
# Loading work.cfs_rx_ctrl(fast)
# Loading work.cfs_synch(fast)
# Loading work.cfs_synch_fifo(fast)
# Loading work.cfs_tx_ctrl(fast)
# Loading work.cfs_ctrl(fast)
# Loading work.cfs_regs(fast)
# Loading work.cfs_edge_detect(fast)
# Loading work.cfs_edge_detect(fast__1)
# Loading /home/abinashnayak/Downloads/questasim/uvm-1.1d/linux_x86_64/uvm_dpi.so
# ** Warning: (vsim-8634) Code was not compiled with coverage options.
# Sv_Seed = 2729308586
#  log -r /* 
# coverage save -onexit vs_alg_cov5
# run -all
# ----------------------------------------------------------------
# UVM-1.1d
# (C) 2007-2013 Mentor Graphics Corporation
# (C) 2007-2013 Cadence Design Systems, Inc.
# (C) 2006-2013 Synopsys, Inc.
# (C) 2011-2013 Cypress Semiconductor Corp.
# ----------------------------------------------------------------
# 
#   ***********       IMPORTANT RELEASE NOTES         ************
# 
#   You are using a version of the UVM library that has been compiled
#   with `UVM_NO_DEPRECATED undefined.
#   See http://www.eda.org/svdb/view.php?id=3313 for more details.
# 
#   You are using a version of the UVM library that has been compiled
#   with `UVM_OBJECT_MUST_HAVE_CONSTRUCTOR undefined.
#   See http://www.eda.org/svdb/view.php?id=3770 for more details.
# 
#       (Specify +UVM_NO_RELNOTES to turn off this notice)
# 
# UVM_INFO @ 0: reporter [RNTST] Running test vs_alg_clr_cnt_drop_reg_test...
# UVM_INFO @ 0: reporter [MAXQUITSET] '+UVM_MAX_QUIT_COUNT=1' provided on the command line is being applied.
# ** Warning: (vsim-12051) Illegal assignment in cast to class work.cfs_md_pkg::cfs_md_sequencer_base_master from class work.uvm_ext_pkg::uvm_ext_sequencer #(class work.cfs_md_pkg::cfs_md_item_drv_master)
#    Time: 0 ns  Iteration: 15  Process: /uvm_pkg::uvm_phase::m_run_phases/#FORK#1847_7fefe4288ff File: ../alg_tb/cfs_algn_env.sv Line: 129
# ** Warning: (vsim-12051) Illegal assignment in cast to class work.cfs_md_pkg::cfs_md_sequencer_base_slave from class work.uvm_ext_pkg::uvm_ext_sequencer #(class work.cfs_md_pkg::cfs_md_item_drv_slave)
#    Time: 0 ns  Iteration: 15  Process: /uvm_pkg::uvm_phase::m_run_phases/#FORK#1847_7fefe4288ff File: ../alg_tb/cfs_algn_env.sv Line: 130
# UVM_INFO @ 0: reporter [UVMTOP] UVM testbench topology:
# --------------------------------------------------------------------------------
# Name                          Type                                   Size  Value
# --------------------------------------------------------------------------------
# uvm_test_top                  vs_alg_clr_cnt_drop_reg_test           -     @487 
#   env                         uvm_env                                -     @494 
#     agent_config              uvm_component                          -     @522 
#     apb_agent                 cfs_apb_agent                          -     @508 
#       agent_config            cfs_apb_agent_config                   -     @870 
#       coverage                cfs_apb_coverage                       -     @892 
#         port_item             uvm_analysis_imp_item                  -     @899 
#         wrap_cover_addr_0     uvm_component                          -     @1039
#         wrap_cover_addr_1     uvm_component                          -     @1046
#         wrap_cover_rd_data_0  uvm_component                          -     @1067
#         wrap_cover_rd_data_1  uvm_component                          -     @1074
#         wrap_cover_wr_data_0  uvm_component                          -     @1053
#         wrap_cover_wr_data_1  uvm_component                          -     @1060
#       driver                  cfs_apb_driver                         -     @907 
#         rsp_port              uvm_analysis_port                      -     @922 
#         seq_item_port         uvm_seq_item_pull_port                 -     @914 
#       monitor                 cfs_apb_monitor                        -     @877 
#         output_port           uvm_analysis_port                      -     @884 
#       sequencer               uvm_sequencer                          -     @930 
#         rsp_export            uvm_analysis_export                    -     @937 
#         seq_item_export       uvm_seq_item_pull_imp                  -     @1031
#         arbitration_queue     array                                  0     -    
#         lock_queue            array                                  0     -    
#         num_last_reqs         integral                               32    'd1  
#         num_last_rsps         integral                               32    'd1  
#     coverage                  cfs_algn_coverage                      -     @744 
#       port_in_split_info      uvm_analysis_imp_in_split_info         -     @751 
#     env_config                cfs_algn_env_config                    -     @501 
#     md_rx_agent               uvm_agent                              -     @515 
#       agent_config            uvm_component                          -     @1088
#       coverage                uvm_component                          -     @1110
#         port_item             uvm_analysis_imp_item                  -     @1117
#         wrap_cover_data_0     uvm_component                          -     @1257
#         wrap_cover_data_1     uvm_component                          -     @1264
#       driver                  uvm_driver #(REQ,RSP)                  -     @1125
#         rsp_port              uvm_analysis_port                      -     @1140
#         seq_item_port         uvm_seq_item_pull_port                 -     @1132
#       monitor                 uvm_monitor                            -     @1095
#         output_port           uvm_analysis_port                      -     @1102
#       sequencer               cfs_md_sequencer_base_master           -     @1148
#         rsp_export            uvm_analysis_export                    -     @1155
#         seq_item_export       uvm_seq_item_pull_imp                  -     @1249
#         arbitration_queue     array                                  0     -    
#         lock_queue            array                                  0     -    
#         num_last_reqs         integral                               32    'd1  
#         num_last_rsps         integral                               32    'd1  
#     md_tx_agent               uvm_agent                              -     @533 
#       coverage                uvm_component                          -     @1293
#         port_item             uvm_analysis_imp_item                  -     @1300
#         wrap_cover_data_0     uvm_component                          -     @1487
#         wrap_cover_data_1     uvm_component                          -     @1494
#       driver                  uvm_driver #(REQ,RSP)                  -     @1308
#         rsp_port              uvm_analysis_port                      -     @1323
#         seq_item_port         uvm_seq_item_pull_port                 -     @1315
#       monitor                 uvm_monitor                            -     @1278
#         output_port           uvm_analysis_port                      -     @1285
#       sequencer               cfs_md_sequencer_base_slave            -     @1331
#         pending_items         uvm_tlm_fifo #(T)                      -     @1448
#           get_ap              uvm_analysis_port                      -     @1479
#           get_peek_export     uvm_get_peek_imp                       -     @1463
#           put_ap              uvm_analysis_port                      -     @1471
#           put_export          uvm_put_imp                            -     @1455
#         port_from_mon         uvm_analysis_imp                       -     @1440
#         rsp_export            uvm_analysis_export                    -     @1338
#         seq_item_export       uvm_seq_item_pull_imp                  -     @1432
#         arbitration_queue     array                                  0     -    
#         lock_queue            array                                  0     -    
#         num_last_reqs         integral                               32    'd1  
#         num_last_rsps         integral                               32    'd1  
#     model                     cfs_algn_model                         -     @540 
#       port_in_rx              uvm_analysis_imp_in_rx                 -     @547 
#       port_in_tx              uvm_analysis_imp_in_tx                 -     @555 
#       port_out_irq            uvm_analysis_port                      -     @579 
#       port_out_rx             uvm_analysis_port                      -     @563 
#       port_out_split_info     uvm_analysis_port                      -     @587 
#       port_out_tx             uvm_analysis_port                      -     @571 
#       rx_fifo                 uvm_tlm_fifo #(T)                      -     @595 
#         get_ap                uvm_analysis_port                      -     @626 
#         get_peek_export       uvm_get_peek_imp                       -     @610 
#         put_ap                uvm_analysis_port                      -     @618 
#         put_export            uvm_put_imp                            -     @602 
#       tx_fifo                 uvm_tlm_fifo #(T)                      -     @634 
#         get_ap                uvm_analysis_port                      -     @665 
#         get_peek_export       uvm_get_peek_imp                       -     @649 
#         put_ap                uvm_analysis_port                      -     @657 
#         put_export            uvm_put_imp                            -     @641 
#     predictor                 uvm_reg_predictor #(cfs_apb_item_mon)  -     @674 
#       bus_in                  uvm_analysis_imp                       -     @681 
#       reg_ap                  uvm_analysis_port                      -     @689 
#     scoreboard                cfs_algn_scoreboard                    -     @697 
#       port_in_agent_rx        uvm_analysis_imp_in_agent_rx           -     @728 
#       port_in_agent_tx        uvm_analysis_imp_in_agent_tx           -     @736 
#       port_in_model_irq       uvm_analysis_imp_in_model_irq          -     @720 
#       port_in_model_rx        uvm_analysis_imp_in_model_rx           -     @704 
#       port_in_model_tx        uvm_analysis_imp_in_model_tx           -     @712 
#     virtual_sequencer         cfs_algn_virtual_sequencer             -     @759 
#       rsp_export              uvm_analysis_export                    -     @766 
#       seq_item_export         uvm_seq_item_pull_imp                  -     @860 
#       arbitration_queue       array                                  0     -    
#       lock_queue              array                                  0     -    
#       num_last_reqs           integral                               32    'd1  
#       num_last_rsps           integral                               32    'd1  
# --------------------------------------------------------------------------------
# 
# UVM_INFO ../alg_apb_agent/cfs_apb_driver.sv(28) @ 50: uvm_test_top.env.apb_agent.driver [ITEM_START] Driving "default_parent_seq.item": dir: CFS_APB_WRITE, addr: 0, data: 202, pre_drive_delay: 3, post_drive_delay: 2
# UVM_INFO ../alg_apb_agent/cfs_apb_monitor.sv(64) @ 105: uvm_test_top.env.apb_agent.monitor [ITEM_END] Monitored item:: dir: CFS_APB_WRITE, addr: 0, data: 202, response: CFS_APB_OKAY, length: 3, prev_item_delay: 5
# UVM_INFO ../alg_md_agent/cfs_md_driver_master.sv(21) @ 125: uvm_test_top.env.md_rx_agent.driver [ITEM_START] Driving "uvm_test_top.env.md_rx_agent.sequencer.seq.item": data: {'h27, 'h73}, offset: 1, pre_drive_delay: 2, post_drive_delay: 1
# UVM_INFO ../alg_md_agent/cfs_md_monitor.sv(55) @ 146: uvm_test_top.env.md_rx_agent.monitor [ITEM_START] Monitor started collecting item: [146..-1] data: {'h27, 'h73}, size: 2, offset: 1, response: CFS_MD_OKAY, length: 1, prev_item_delay: 11, in_transaction: 1
# UVM_INFO ../alg_tb/cfs_algn_model.sv(369) @ 146: uvm_test_top.env.model [CNT_DROP] Increment reg_block.STATUS.CNT_DROP: 1 due to: CFS_MD_ERR
# UVM_INFO ../alg_md_agent/cfs_md_monitor.sv(77) @ 155: uvm_test_top.env.md_rx_agent.monitor [ITEM_END] Monitored item: [146..155] data: {'h27, 'h73}, size: 2, offset: 1, response: CFS_MD_ERR, length: 1, prev_item_delay: 11, in_transaction: 0
# UVM_INFO ../alg_md_agent/cfs_md_driver_master.sv(21) @ 165: uvm_test_top.env.md_rx_agent.driver [ITEM_START] Driving "uvm_test_top.env.md_rx_agent.sequencer.seq.item": data: {'h24, 'ha7}, offset: 1, pre_drive_delay: 2, post_drive_delay: 0
# UVM_INFO ../alg_md_agent/cfs_md_monitor.sv(55) @ 186: uvm_test_top.env.md_rx_agent.monitor [ITEM_START] Monitor started collecting item: [186..-1] data: {'h24, 'ha7}, size: 2, offset: 1, response: CFS_MD_OKAY, length: 1, prev_item_delay: 3, in_transaction: 1
# UVM_INFO ../alg_tb/cfs_algn_model.sv(369) @ 186: uvm_test_top.env.model [CNT_DROP] Increment reg_block.STATUS.CNT_DROP: 2 due to: CFS_MD_ERR
# UVM_INFO ../alg_md_agent/cfs_md_monitor.sv(77) @ 195: uvm_test_top.env.md_rx_agent.monitor [ITEM_END] Monitored item: [186..195] data: {'h24, 'ha7}, size: 2, offset: 1, response: CFS_MD_ERR, length: 1, prev_item_delay: 3, in_transaction: 0
# UVM_INFO ../alg_md_agent/cfs_md_driver_master.sv(21) @ 195: uvm_test_top.env.md_rx_agent.driver [ITEM_START] Driving "uvm_test_top.env.md_rx_agent.sequencer.seq.item": data: {'h71, 'hcc}, offset: 1, pre_drive_delay: 2, post_drive_delay: 2
# UVM_INFO ../alg_md_agent/cfs_md_monitor.sv(55) @ 216: uvm_test_top.env.md_rx_agent.monitor [ITEM_START] Monitor started collecting item: [216..-1] data: {'h71, 'hcc}, size: 2, offset: 1, response: CFS_MD_OKAY, length: 1, prev_item_delay: 2, in_transaction: 1
# UVM_INFO ../alg_tb/cfs_algn_model.sv(369) @ 216: uvm_test_top.env.model [CNT_DROP] Increment reg_block.STATUS.CNT_DROP: 3 due to: CFS_MD_ERR
# UVM_INFO ../alg_md_agent/cfs_md_monitor.sv(77) @ 225: uvm_test_top.env.md_rx_agent.monitor [ITEM_END] Monitored item: [216..225] data: {'h71, 'hcc}, size: 2, offset: 1, response: CFS_MD_ERR, length: 1, prev_item_delay: 2, in_transaction: 0
# UVM_INFO ../alg_md_agent/cfs_md_driver_master.sv(21) @ 245: uvm_test_top.env.md_rx_agent.driver [ITEM_START] Driving "uvm_test_top.env.md_rx_agent.sequencer.seq.item": data: {'h23, 'h06}, offset: 1, pre_drive_delay: 1, post_drive_delay: 3
# UVM_INFO ../alg_md_agent/cfs_md_monitor.sv(55) @ 256: uvm_test_top.env.md_rx_agent.monitor [ITEM_START] Monitor started collecting item: [256..-1] data: {'h23, 'h06}, size: 2, offset: 1, response: CFS_MD_OKAY, length: 1, prev_item_delay: 3, in_transaction: 1
# UVM_INFO ../alg_tb/cfs_algn_model.sv(369) @ 256: uvm_test_top.env.model [CNT_DROP] Increment reg_block.STATUS.CNT_DROP: 4 due to: CFS_MD_ERR
# UVM_INFO ../alg_md_agent/cfs_md_monitor.sv(77) @ 265: uvm_test_top.env.md_rx_agent.monitor [ITEM_END] Monitored item: [256..265] data: {'h23, 'h06}, size: 2, offset: 1, response: CFS_MD_ERR, length: 1, prev_item_delay: 3, in_transaction: 0
# UVM_INFO ../alg_md_agent/cfs_md_driver_master.sv(21) @ 295: uvm_test_top.env.md_rx_agent.driver [ITEM_START] Driving "uvm_test_top.env.md_rx_agent.sequencer.seq.item": data: {'hed, 'h01}, offset: 1, pre_drive_delay: 4, post_drive_delay: 0
# UVM_INFO ../alg_md_agent/cfs_md_monitor.sv(55) @ 336: uvm_test_top.env.md_rx_agent.monitor [ITEM_START] Monitor started collecting item: [336..-1] data: {'hed, 'h01}, size: 2, offset: 1, response: CFS_MD_OKAY, length: 1, prev_item_delay: 7, in_transaction: 1
# UVM_INFO ../alg_tb/cfs_algn_model.sv(369) @ 336: uvm_test_top.env.model [CNT_DROP] Increment reg_block.STATUS.CNT_DROP: 5 due to: CFS_MD_ERR
# UVM_INFO ../alg_md_agent/cfs_md_monitor.sv(77) @ 345: uvm_test_top.env.md_rx_agent.monitor [ITEM_END] Monitored item: [336..345] data: {'hed, 'h01}, size: 2, offset: 1, response: CFS_MD_ERR, length: 1, prev_item_delay: 7, in_transaction: 0
# UVM_INFO ../alg_md_agent/cfs_md_driver_master.sv(21) @ 345: uvm_test_top.env.md_rx_agent.driver [ITEM_START] Driving "uvm_test_top.env.md_rx_agent.sequencer.seq.item": data: {'hd7, 'hac, 'h1c}, offset: 1, pre_drive_delay: 3, post_drive_delay: 5
# UVM_INFO ../alg_md_agent/cfs_md_monitor.sv(55) @ 376: uvm_test_top.env.md_rx_agent.monitor [ITEM_START] Monitor started collecting item: [376..-1] data: {'hd7, 'hac, 'h1c}, size: 3, offset: 1, response: CFS_MD_OKAY, length: 1, prev_item_delay: 3, in_transaction: 1
# UVM_INFO ../alg_tb/cfs_algn_model.sv(369) @ 376: uvm_test_top.env.model [CNT_DROP] Increment reg_block.STATUS.CNT_DROP: 6 due to: CFS_MD_ERR
# UVM_INFO ../alg_md_agent/cfs_md_monitor.sv(77) @ 385: uvm_test_top.env.md_rx_agent.monitor [ITEM_END] Monitored item: [376..385] data: {'hd7, 'hac, 'h1c}, size: 3, offset: 1, response: CFS_MD_ERR, length: 1, prev_item_delay: 3, in_transaction: 0
# UVM_INFO ../alg_md_agent/cfs_md_driver_master.sv(21) @ 435: uvm_test_top.env.md_rx_agent.driver [ITEM_START] Driving "uvm_test_top.env.md_rx_agent.sequencer.seq.item": data: {'h4c, 'h99, 'hb9}, offset: 0, pre_drive_delay: 3, post_drive_delay: 1
# UVM_INFO ../alg_md_agent/cfs_md_monitor.sv(55) @ 466: uvm_test_top.env.md_rx_agent.monitor [ITEM_START] Monitor started collecting item: [466..-1] data: {'h4c, 'h99, 'hb9}, size: 3, offset: 0, response: CFS_MD_OKAY, length: 1, prev_item_delay: 8, in_transaction: 1
# UVM_INFO ../alg_tb/cfs_algn_model.sv(369) @ 466: uvm_test_top.env.model [CNT_DROP] Increment reg_block.STATUS.CNT_DROP: 7 due to: CFS_MD_ERR
# UVM_INFO ../alg_md_agent/cfs_md_monitor.sv(77) @ 475: uvm_test_top.env.md_rx_agent.monitor [ITEM_END] Monitored item: [466..475] data: {'h4c, 'h99, 'hb9}, size: 3, offset: 0, response: CFS_MD_ERR, length: 1, prev_item_delay: 8, in_transaction: 0
# UVM_INFO ../alg_md_agent/cfs_md_driver_master.sv(21) @ 485: uvm_test_top.env.md_rx_agent.driver [ITEM_START] Driving "uvm_test_top.env.md_rx_agent.sequencer.seq.item": data: {'h5f, 'h2f}, offset: 1, pre_drive_delay: 4, post_drive_delay: 0
# UVM_INFO ../alg_md_agent/cfs_md_monitor.sv(55) @ 526: uvm_test_top.env.md_rx_agent.monitor [ITEM_START] Monitor started collecting item: [526..-1] data: {'h5f, 'h2f}, size: 2, offset: 1, response: CFS_MD_OKAY, length: 1, prev_item_delay: 5, in_transaction: 1
# UVM_INFO ../alg_tb/cfs_algn_model.sv(369) @ 526: uvm_test_top.env.model [CNT_DROP] Increment reg_block.STATUS.CNT_DROP: 8 due to: CFS_MD_ERR
# UVM_INFO ../alg_md_agent/cfs_md_monitor.sv(77) @ 535: uvm_test_top.env.md_rx_agent.monitor [ITEM_END] Monitored item: [526..535] data: {'h5f, 'h2f}, size: 2, offset: 1, response: CFS_MD_ERR, length: 1, prev_item_delay: 5, in_transaction: 0
# UVM_INFO ../alg_md_agent/cfs_md_driver_master.sv(21) @ 535: uvm_test_top.env.md_rx_agent.driver [ITEM_START] Driving "uvm_test_top.env.md_rx_agent.sequencer.seq.item": data: {'he5, 'h16}, offset: 1, pre_drive_delay: 2, post_drive_delay: 1
# UVM_INFO ../alg_md_agent/cfs_md_monitor.sv(55) @ 556: uvm_test_top.env.md_rx_agent.monitor [ITEM_START] Monitor started collecting item: [556..-1] data: {'he5, 'h16}, size: 2, offset: 1, response: CFS_MD_OKAY, length: 1, prev_item_delay: 2, in_transaction: 1
# UVM_INFO ../alg_tb/cfs_algn_model.sv(369) @ 556: uvm_test_top.env.model [CNT_DROP] Increment reg_block.STATUS.CNT_DROP: 9 due to: CFS_MD_ERR
# UVM_INFO ../alg_md_agent/cfs_md_monitor.sv(77) @ 565: uvm_test_top.env.md_rx_agent.monitor [ITEM_END] Monitored item: [556..565] data: {'he5, 'h16}, size: 2, offset: 1, response: CFS_MD_ERR, length: 1, prev_item_delay: 2, in_transaction: 0
# UVM_INFO ../alg_md_agent/cfs_md_driver_master.sv(21) @ 575: uvm_test_top.env.md_rx_agent.driver [ITEM_START] Driving "uvm_test_top.env.md_rx_agent.sequencer.seq.item": data: {'h59, 'h3e, 'h4f}, offset: 1, pre_drive_delay: 0, post_drive_delay: 3
# UVM_INFO ../alg_md_agent/cfs_md_monitor.sv(55) @ 576: uvm_test_top.env.md_rx_agent.monitor [ITEM_START] Monitor started collecting item: [576..-1] data: {'h59, 'h3e, 'h4f}, size: 3, offset: 1, response: CFS_MD_OKAY, length: 1, prev_item_delay: 1, in_transaction: 1
# UVM_INFO ../alg_tb/cfs_algn_model.sv(369) @ 576: uvm_test_top.env.model [CNT_DROP] Increment reg_block.STATUS.CNT_DROP: 10 due to: CFS_MD_ERR
# UVM_INFO ../alg_md_agent/cfs_md_monitor.sv(77) @ 585: uvm_test_top.env.md_rx_agent.monitor [ITEM_END] Monitored item: [576..585] data: {'h59, 'h3e, 'h4f}, size: 3, offset: 1, response: CFS_MD_ERR, length: 1, prev_item_delay: 1, in_transaction: 0
# UVM_INFO ../alg_md_agent/cfs_md_driver_master.sv(21) @ 615: uvm_test_top.env.md_rx_agent.driver [ITEM_START] Driving "uvm_test_top.env.md_rx_agent.sequencer.seq.item": data: {'h14, 'h71}, offset: 1, pre_drive_delay: 3, post_drive_delay: 1
# UVM_INFO ../alg_md_agent/cfs_md_monitor.sv(55) @ 646: uvm_test_top.env.md_rx_agent.monitor [ITEM_START] Monitor started collecting item: [646..-1] data: {'h14, 'h71}, size: 2, offset: 1, response: CFS_MD_OKAY, length: 1, prev_item_delay: 6, in_transaction: 1
# UVM_INFO ../alg_tb/cfs_algn_model.sv(369) @ 646: uvm_test_top.env.model [CNT_DROP] Increment reg_block.STATUS.CNT_DROP: 11 due to: CFS_MD_ERR
# UVM_INFO ../alg_md_agent/cfs_md_monitor.sv(77) @ 655: uvm_test_top.env.md_rx_agent.monitor [ITEM_END] Monitored item: [646..655] data: {'h14, 'h71}, size: 2, offset: 1, response: CFS_MD_ERR, length: 1, prev_item_delay: 6, in_transaction: 0
# UVM_INFO ../alg_md_agent/cfs_md_driver_master.sv(21) @ 665: uvm_test_top.env.md_rx_agent.driver [ITEM_START] Driving "uvm_test_top.env.md_rx_agent.sequencer.seq.item": data: {'hb7, 'hfc}, offset: 1, pre_drive_delay: 4, post_drive_delay: 5
# UVM_INFO ../alg_md_agent/cfs_md_monitor.sv(55) @ 706: uvm_test_top.env.md_rx_agent.monitor [ITEM_START] Monitor started collecting item: [706..-1] data: {'hb7, 'hfc}, size: 2, offset: 1, response: CFS_MD_OKAY, length: 1, prev_item_delay: 5, in_transaction: 1
# UVM_INFO ../alg_tb/cfs_algn_model.sv(369) @ 706: uvm_test_top.env.model [CNT_DROP] Increment reg_block.STATUS.CNT_DROP: 12 due to: CFS_MD_ERR
# UVM_INFO ../alg_md_agent/cfs_md_monitor.sv(77) @ 715: uvm_test_top.env.md_rx_agent.monitor [ITEM_END] Monitored item: [706..715] data: {'hb7, 'hfc}, size: 2, offset: 1, response: CFS_MD_ERR, length: 1, prev_item_delay: 5, in_transaction: 0
# UVM_INFO ../alg_md_agent/cfs_md_driver_master.sv(21) @ 765: uvm_test_top.env.md_rx_agent.driver [ITEM_START] Driving "uvm_test_top.env.md_rx_agent.sequencer.seq.item": data: {'h80, 'h79}, offset: 1, pre_drive_delay: 2, post_drive_delay: 5
# UVM_INFO ../alg_md_agent/cfs_md_monitor.sv(55) @ 786: uvm_test_top.env.md_rx_agent.monitor [ITEM_START] Monitor started collecting item: [786..-1] data: {'h80, 'h79}, size: 2, offset: 1, response: CFS_MD_OKAY, length: 1, prev_item_delay: 7, in_transaction: 1
# UVM_INFO ../alg_tb/cfs_algn_model.sv(369) @ 786: uvm_test_top.env.model [CNT_DROP] Increment reg_block.STATUS.CNT_DROP: 13 due to: CFS_MD_ERR
# UVM_INFO ../alg_md_agent/cfs_md_monitor.sv(77) @ 795: uvm_test_top.env.md_rx_agent.monitor [ITEM_END] Monitored item: [786..795] data: {'h80, 'h79}, size: 2, offset: 1, response: CFS_MD_ERR, length: 1, prev_item_delay: 7, in_transaction: 0
# UVM_INFO ../alg_md_agent/cfs_md_driver_master.sv(21) @ 845: uvm_test_top.env.md_rx_agent.driver [ITEM_START] Driving "uvm_test_top.env.md_rx_agent.sequencer.seq.item": data: {'h13, 'h7f}, offset: 1, pre_drive_delay: 0, post_drive_delay: 0
# UVM_INFO ../alg_md_agent/cfs_md_monitor.sv(55) @ 846: uvm_test_top.env.md_rx_agent.monitor [ITEM_START] Monitor started collecting item: [846..-1] data: {'h13, 'h7f}, size: 2, offset: 1, response: CFS_MD_OKAY, length: 1, prev_item_delay: 5, in_transaction: 1
# UVM_INFO ../alg_tb/cfs_algn_model.sv(369) @ 846: uvm_test_top.env.model [CNT_DROP] Increment reg_block.STATUS.CNT_DROP: 14 due to: CFS_MD_ERR
# UVM_INFO ../alg_md_agent/cfs_md_monitor.sv(77) @ 855: uvm_test_top.env.md_rx_agent.monitor [ITEM_END] Monitored item: [846..855] data: {'h13, 'h7f}, size: 2, offset: 1, response: CFS_MD_ERR, length: 1, prev_item_delay: 5, in_transaction: 0
# UVM_INFO ../alg_md_agent/cfs_md_driver_master.sv(21) @ 855: uvm_test_top.env.md_rx_agent.driver [ITEM_START] Driving "uvm_test_top.env.md_rx_agent.sequencer.seq.item": data: {'h6b, 'h91, 'h54}, offset: 0, pre_drive_delay: 2, post_drive_delay: 4
# UVM_INFO ../alg_md_agent/cfs_md_monitor.sv(55) @ 876: uvm_test_top.env.md_rx_agent.monitor [ITEM_START] Monitor started collecting item: [876..-1] data: {'h6b, 'h91, 'h54}, size: 3, offset: 0, response: CFS_MD_OKAY, length: 1, prev_item_delay: 2, in_transaction: 1
# UVM_INFO ../alg_tb/cfs_algn_model.sv(369) @ 876: uvm_test_top.env.model [CNT_DROP] Increment reg_block.STATUS.CNT_DROP: 15 due to: CFS_MD_ERR
# UVM_INFO ../alg_md_agent/cfs_md_monitor.sv(77) @ 885: uvm_test_top.env.md_rx_agent.monitor [ITEM_END] Monitored item: [876..885] data: {'h6b, 'h91, 'h54}, size: 3, offset: 0, response: CFS_MD_ERR, length: 1, prev_item_delay: 2, in_transaction: 0
# UVM_INFO ../alg_apb_agent/cfs_apb_driver.sv(28) @ 925: uvm_test_top.env.apb_agent.driver [ITEM_START] Driving "default_parent_seq.item": dir: CFS_APB_WRITE, addr: 0, data: 2, pre_drive_delay: 4, post_drive_delay: 4
# UVM_INFO ../alg_apb_agent/cfs_apb_monitor.sv(64) @ 995: uvm_test_top.env.apb_agent.monitor [ITEM_END] Monitored item:: dir: CFS_APB_WRITE, addr: 0, data: 2, response: CFS_APB_OKAY, length: 3, prev_item_delay: 86
# UVM_INFO ../alg_md_agent/cfs_md_driver_master.sv(21) @ 1035: uvm_test_top.env.md_rx_agent.driver [ITEM_START] Driving "uvm_test_top.env.md_rx_agent.sequencer.seq.item": data: {'hd6, 'h86}, offset: 1, pre_drive_delay: 4, post_drive_delay: 4
# UVM_INFO ../alg_md_agent/cfs_md_monitor.sv(55) @ 1076: uvm_test_top.env.md_rx_agent.monitor [ITEM_START] Monitor started collecting item: [1076..-1] data: {'hd6, 'h86}, size: 2, offset: 1, response: CFS_MD_OKAY, length: 1, prev_item_delay: 19, in_transaction: 1
# UVM_INFO ../alg_tb/cfs_algn_model.sv(369) @ 1076: uvm_test_top.env.model [CNT_DROP] Increment reg_block.STATUS.CNT_DROP: 16 due to: CFS_MD_ERR
# UVM_INFO ../alg_md_agent/cfs_md_monitor.sv(77) @ 1085: uvm_test_top.env.md_rx_agent.monitor [ITEM_END] Monitored item: [1076..1085] data: {'hd6, 'h86}, size: 2, offset: 1, response: CFS_MD_ERR, length: 1, prev_item_delay: 19, in_transaction: 0
# UVM_INFO ../alg_md_agent/cfs_md_driver_master.sv(21) @ 1125: uvm_test_top.env.md_rx_agent.driver [ITEM_START] Driving "uvm_test_top.env.md_rx_agent.sequencer.seq.item": data: {'h3d, 'ha0, 'hfe}, offset: 1, pre_drive_delay: 5, post_drive_delay: 2
# UVM_INFO ../alg_md_agent/cfs_md_monitor.sv(55) @ 1176: uvm_test_top.env.md_rx_agent.monitor [ITEM_START] Monitor started collecting item: [1176..-1] data: {'h3d, 'ha0, 'hfe}, size: 3, offset: 1, response: CFS_MD_OKAY, length: 1, prev_item_delay: 9, in_transaction: 1
# UVM_INFO ../alg_tb/cfs_algn_model.sv(369) @ 1176: uvm_test_top.env.model [CNT_DROP] Increment reg_block.STATUS.CNT_DROP: 17 due to: CFS_MD_ERR
# UVM_INFO ../alg_md_agent/cfs_md_monitor.sv(77) @ 1185: uvm_test_top.env.md_rx_agent.monitor [ITEM_END] Monitored item: [1176..1185] data: {'h3d, 'ha0, 'hfe}, size: 3, offset: 1, response: CFS_MD_ERR, length: 1, prev_item_delay: 9, in_transaction: 0
# UVM_INFO ../alg_md_agent/cfs_md_driver_master.sv(21) @ 1205: uvm_test_top.env.md_rx_agent.driver [ITEM_START] Driving "uvm_test_top.env.md_rx_agent.sequencer.seq.item": data: {'hd2, 'h1f}, offset: 1, pre_drive_delay: 5, post_drive_delay: 1
# UVM_INFO ../alg_md_agent/cfs_md_monitor.sv(55) @ 1256: uvm_test_top.env.md_rx_agent.monitor [ITEM_START] Monitor started collecting item: [1256..-1] data: {'hd2, 'h1f}, size: 2, offset: 1, response: CFS_MD_OKAY, length: 1, prev_item_delay: 7, in_transaction: 1
# UVM_INFO ../alg_tb/cfs_algn_model.sv(369) @ 1256: uvm_test_top.env.model [CNT_DROP] Increment reg_block.STATUS.CNT_DROP: 18 due to: CFS_MD_ERR
# UVM_INFO ../alg_md_agent/cfs_md_monitor.sv(77) @ 1265: uvm_test_top.env.md_rx_agent.monitor [ITEM_END] Monitored item: [1256..1265] data: {'hd2, 'h1f}, size: 2, offset: 1, response: CFS_MD_ERR, length: 1, prev_item_delay: 7, in_transaction: 0
# UVM_INFO ../alg_md_agent/cfs_md_driver_master.sv(21) @ 1275: uvm_test_top.env.md_rx_agent.driver [ITEM_START] Driving "uvm_test_top.env.md_rx_agent.sequencer.seq.item": data: {'h3a, 'hfe, 'had}, offset: 1, pre_drive_delay: 4, post_drive_delay: 1
