simulation/test1.log
# vsim -cvgperinstance -vopt -voptargs="+acc" -coverage -sva -c -do " log -r /* ;coverage save -onexit vs_alg_cov1;run -all; exit" -wlf wave_file1.wlf -l test1.log -sv_seed 35558723 work.top "+UVM_TESTNAME=vs_alg_mid_reset_test" "+UVM_MAX_QUIT_COUNT=1" "+UVM_VERBOSITY=UVM_LOW" -f message.f 
# Start time: 16:41:16 on Dec 04,2025
# ** Note: (vsim-3812) Design is being optimized...
# ** Warning: ../alg_md_agent/cfs_md_sequencer_base.sv(12): (vopt-2250) Function "get_data_width" has no return value assignment.
# ** Note: (vsim-12126) Error and warning message counts have been restored: Errors=0, Warnings=1.
# //  Questa Sim-64
# //  Version 2021.2_1 linux_x86_64 May 15 2021
# //
# //  Copyright 1991-2021 Mentor Graphics Corporation
# //  All Rights Reserved.
# //
# //  QuestaSim and its associated documentation contain trade
# //  secrets and commercial or financial information that are the property of
# //  Mentor Graphics Corporation and are privileged, confidential,
# //  and exempt from disclosure under the Freedom of Information Act,
# //  5 U.S.C. Section 552. Furthermore, this information
# //  is prohibited from disclosure under the Trade Secrets Act,
# //  18 U.S.C. Section 1905.
# //
# Loading sv_std.std
# Loading work.cfs_algn_if(fast)
# Loading work.cfs_apb_if(fast)
# Loading work.cfs_md_if(fast)
# Loading mtiUvm.uvm_pkg(fast)
# Loading work.cfs_algn_reg_pkg(fast)
# Loading work.uvm_ext_pkg(fast)
# Loading work.cfs_md_pkg(fast)
# Loading work.cfs_apb_pkg(fast)
# Loading work.cfs_algn_pkg(fast)
# Loading work.cfs_algn_test_pkg(fast)
# Loading mtiUvm.questa_uvm_pkg(fast)
# Loading work.top(fast)
# Loading work.cfs_apb_if(fast__2)
# Loading work.cfs_md_if(fast__3)
# Loading work.cfs_algn_if(fast__2)
# Loading work.cfs_aligner(fast)
# Loading work.cfs_aligner_core(fast)
# Loading work.cfs_rx_ctrl(fast)
# Loading work.cfs_synch(fast)
# Loading work.cfs_synch_fifo(fast)
# Loading work.cfs_tx_ctrl(fast)
# Loading work.cfs_ctrl(fast)
# Loading work.cfs_regs(fast)
# Loading work.cfs_edge_detect(fast)
# Loading work.cfs_edge_detect(fast__1)
# Loading /home/abinashnayak/Downloads/questasim/uvm-1.1d/linux_x86_64/uvm_dpi.so
# ** Warning: (vsim-8634) Code was not compiled with coverage options.
#  log -r /* 
# coverage save -onexit vs_alg_cov1
# run -all
# ----------------------------------------------------------------
# UVM-1.1d
# (C) 2007-2013 Mentor Graphics Corporation
# (C) 2007-2013 Cadence Design Systems, Inc.
# (C) 2006-2013 Synopsys, Inc.
# (C) 2011-2013 Cypress Semiconductor Corp.
# ----------------------------------------------------------------
# 
#   ***********       IMPORTANT RELEASE NOTES         ************
# 
#   You are using a version of the UVM library that has been compiled
#   with `UVM_NO_DEPRECATED undefined.
#   See http://www.eda.org/svdb/view.php?id=3313 for more details.
# 
#   You are using a version of the UVM library that has been compiled
#   with `UVM_OBJECT_MUST_HAVE_CONSTRUCTOR undefined.
#   See http://www.eda.org/svdb/view.php?id=3770 for more details.
# 
#       (Specify +UVM_NO_RELNOTES to turn off this notice)
# 
# UVM_INFO @ 0: reporter [RNTST] Running test vs_alg_mid_reset_test...
# UVM_INFO @ 0: reporter [MAXQUITSET] '+UVM_MAX_QUIT_COUNT=1' provided on the command line is being applied.
# ** Warning: (vsim-12051) Illegal assignment in cast to class work.cfs_md_pkg::cfs_md_sequencer_base_master from class work.uvm_ext_pkg::uvm_ext_sequencer #(class work.cfs_md_pkg::cfs_md_item_drv_master)
#    Time: 0 ns  Iteration: 15  Process: /uvm_pkg::uvm_phase::m_run_phases/#FORK#1847_7fefe4268ff File: ../alg_tb/cfs_algn_env.sv Line: 129
# ** Warning: (vsim-12051) Illegal assignment in cast to class work.cfs_md_pkg::cfs_md_sequencer_base_slave from class work.uvm_ext_pkg::uvm_ext_sequencer #(class work.cfs_md_pkg::cfs_md_item_drv_slave)
#    Time: 0 ns  Iteration: 15  Process: /uvm_pkg::uvm_phase::m_run_phases/#FORK#1847_7fefe4268ff File: ../alg_tb/cfs_algn_env.sv Line: 130
# UVM_INFO @ 0: reporter [UVMTOP] UVM testbench topology:
# --------------------------------------------------------------------------------
# Name                          Type                                   Size  Value
# --------------------------------------------------------------------------------
# uvm_test_top                  vs_alg_mid_reset_test                  -     @487 
#   env                         uvm_env                                -     @494 
#     agent_config              uvm_component                          -     @522 
#     apb_agent                 cfs_apb_agent                          -     @508 
#       agent_config            cfs_apb_agent_config                   -     @870 
#       coverage                cfs_apb_coverage                       -     @892 
#         port_item             uvm_analysis_imp_item                  -     @899 
#         wrap_cover_addr_0     uvm_component                          -     @1039
#         wrap_cover_addr_1     uvm_component                          -     @1046
#         wrap_cover_rd_data_0  uvm_component                          -     @1067
#         wrap_cover_rd_data_1  uvm_component                          -     @1074
#         wrap_cover_wr_data_0  uvm_component                          -     @1053
#         wrap_cover_wr_data_1  uvm_component                          -     @1060
#       driver                  cfs_apb_driver                         -     @907 
#         rsp_port              uvm_analysis_port                      -     @922 
#         seq_item_port         uvm_seq_item_pull_port                 -     @914 
#       monitor                 cfs_apb_monitor                        -     @877 
#         output_port           uvm_analysis_port                      -     @884 
#       sequencer               uvm_sequencer                          -     @930 
#         rsp_export            uvm_analysis_export                    -     @937 
#         seq_item_export       uvm_seq_item_pull_imp                  -     @1031
#         arbitration_queue     array                                  0     -    
#         lock_queue            array                                  0     -    
#         num_last_reqs         integral                               32    'd1  
#         num_last_rsps         integral                               32    'd1  
#     coverage                  cfs_algn_coverage                      -     @744 
#       port_in_split_info      uvm_analysis_imp_in_split_info         -     @751 
#     env_config                cfs_algn_env_config                    -     @501 
#     md_rx_agent               uvm_agent                              -     @515 
#       agent_config            uvm_component                          -     @1088
#       coverage                uvm_component                          -     @1110
#         port_item             uvm_analysis_imp_item                  -     @1117
#         wrap_cover_data_0     uvm_component                          -     @1257
#         wrap_cover_data_1     uvm_component                          -     @1264
#       driver                  uvm_driver #(REQ,RSP)                  -     @1125
#         rsp_port              uvm_analysis_port                      -     @1140
#         seq_item_port         uvm_seq_item_pull_port                 -     @1132
#       monitor                 uvm_monitor                            -     @1095
#         output_port           uvm_analysis_port                      -     @1102
#       sequencer               cfs_md_sequencer_base_master           -     @1148
#         rsp_export            uvm_analysis_export                    -     @1155
#         seq_item_export       uvm_seq_item_pull_imp                  -     @1249
#         arbitration_queue     array                                  0     -    
#         lock_queue            array                                  0     -    
#         num_last_reqs         integral                               32    'd1  
#         num_last_rsps         integral                               32    'd1  
#     md_tx_agent               uvm_agent                              -     @533 
#       coverage                uvm_component                          -     @1293
#         port_item             uvm_analysis_imp_item                  -     @1300
#         wrap_cover_data_0     uvm_component                          -     @1487
#         wrap_cover_data_1     uvm_component                          -     @1494
#       driver                  uvm_driver #(REQ,RSP)                  -     @1308
#         rsp_port              uvm_analysis_port                      -     @1323
#         seq_item_port         uvm_seq_item_pull_port                 -     @1315
#       monitor                 uvm_monitor                            -     @1278
#         output_port           uvm_analysis_port                      -     @1285
#       sequencer               cfs_md_sequencer_base_slave            -     @1331
#         pending_items         uvm_tlm_fifo #(T)                      -     @1448
#           get_ap              uvm_analysis_port                      -     @1479
#           get_peek_export     uvm_get_peek_imp                       -     @1463
#           put_ap              uvm_analysis_port                      -     @1471
#           put_export          uvm_put_imp                            -     @1455
#         port_from_mon         uvm_analysis_imp                       -     @1440
#         rsp_export            uvm_analysis_export                    -     @1338
#         seq_item_export       uvm_seq_item_pull_imp                  -     @1432
#         arbitration_queue     array                                  0     -    
#         lock_queue            array                                  0     -    
#         num_last_reqs         integral                               32    'd1  
#         num_last_rsps         integral                               32    'd1  
#     model                     cfs_algn_model                         -     @540 
#       port_in_rx              uvm_analysis_imp_in_rx                 -     @547 
#       port_in_tx              uvm_analysis_imp_in_tx                 -     @555 
#       port_out_irq            uvm_analysis_port                      -     @579 
#       port_out_rx             uvm_analysis_port                      -     @563 
#       port_out_split_info     uvm_analysis_port                      -     @587 
#       port_out_tx             uvm_analysis_port                      -     @571 
#       rx_fifo                 uvm_tlm_fifo #(T)                      -     @595 
#         get_ap                uvm_analysis_port                      -     @626 
#         get_peek_export       uvm_get_peek_imp                       -     @610 
#         put_ap                uvm_analysis_port                      -     @618 
#         put_export            uvm_put_imp                            -     @602 
#       tx_fifo                 uvm_tlm_fifo #(T)                      -     @634 
#         get_ap                uvm_analysis_port                      -     @665 
#         get_peek_export       uvm_get_peek_imp                       -     @649 
#         put_ap                uvm_analysis_port                      -     @657 
#         put_export            uvm_put_imp                            -     @641 
#     predictor                 uvm_reg_predictor #(cfs_apb_item_mon)  -     @674 
#       bus_in                  uvm_analysis_imp                       -     @681 
#       reg_ap                  uvm_analysis_port                      -     @689 
#     scoreboard                cfs_algn_scoreboard                    -     @697 
#       port_in_agent_rx        uvm_analysis_imp_in_agent_rx           -     @728 
#       port_in_agent_tx        uvm_analysis_imp_in_agent_tx           -     @736 
#       port_in_model_irq       uvm_analysis_imp_in_model_irq          -     @720 
#       port_in_model_rx        uvm_analysis_imp_in_model_rx           -     @704 
#       port_in_model_tx        uvm_analysis_imp_in_model_tx           -     @712 
#     virtual_sequencer         cfs_algn_virtual_sequencer             -     @759 
#       rsp_export              uvm_analysis_export                    -     @766 
#       seq_item_export         uvm_seq_item_pull_imp                  -     @860 
#       arbitration_queue       array                                  0     -    
#       lock_queue              array                                  0     -    
#       num_last_reqs           integral                               32    'd1  
#       num_last_rsps           integral                               32    'd1  
# --------------------------------------------------------------------------------
# 
# UVM_INFO ../alg_apb_agent/cfs_apb_driver.sv(28) @ 50: uvm_test_top.env.apb_agent.driver [ITEM_START] Driving "default_parent_seq.item": dir: CFS_APB_WRITE, addr: 0, data: 101, pre_drive_delay: 1, post_drive_delay: 5
# UVM_INFO ../alg_apb_agent/cfs_apb_monitor.sv(64) @ 85: uvm_test_top.env.apb_agent.monitor [ITEM_END] Monitored item:: dir: CFS_APB_WRITE, addr: 0, data: 101, response: CFS_APB_OKAY, length: 3, prev_item_delay: 3
# UVM_INFO ../alg_md_agent/cfs_md_driver_master.sv(21) @ 135: uvm_test_top.env.md_rx_agent.driver [ITEM_START] Driving "uvm_test_top.env.md_rx_agent.sequencer.seq.item": data: {'h7a, 'ha4}, offset: 2, pre_drive_delay: 4, post_drive_delay: 5
# UVM_INFO ../alg_md_agent/cfs_md_monitor.sv(55) @ 176: uvm_test_top.env.md_rx_agent.monitor [ITEM_START] Monitor started collecting item: [176..-1] data: {'h7a, 'ha4}, size: 2, offset: 2, response: CFS_MD_OKAY, length: 1, prev_item_delay: 14, in_transaction: 1
# UVM_INFO ../alg_tb/cfs_algn_model.sv(529) @ 185: uvm_test_top.env.model [RX_FIFO] RX FIFO push - new level: 1, pushed entry: [176..-1] data: {'h7a, 'ha4}, size: 2, offset: 2, response: CFS_MD_OKAY, length: 1, prev_item_delay: 14, in_transaction: 1
# UVM_INFO ../alg_md_agent/cfs_md_monitor.sv(77) @ 185: uvm_test_top.env.md_rx_agent.monitor [ITEM_END] Monitored item: [176..185] data: {'h7a, 'ha4}, size: 2, offset: 2, response: CFS_MD_OKAY, length: 1, prev_item_delay: 14, in_transaction: 0
# UVM_INFO ../alg_tb/cfs_algn_model.sv(545) @ 195: uvm_test_top.env.model [RX_FIFO] RX FIFO pop - new level: 0, popped entry: [176..185] data: {'h7a, 'ha4}, size: 2, offset: 2, response: CFS_MD_OKAY, length: 1, prev_item_delay: 14, in_transaction: 0
# UVM_INFO ../alg_tb/cfs_algn_model.sv(559) @ 205: uvm_test_top.env.model [TX_FIFO] TX FIFO push - new level: 1, pushed entry: [176..185] data: {'h7a}, size: 1, offset: 1, response: CFS_MD_OKAY, length: 0, prev_item_delay: 0, in_transaction: 0
# UVM_INFO ../alg_md_agent/cfs_md_monitor.sv(55) @ 206: uvm_test_top.env.md_tx_agent.monitor [ITEM_START] Monitor started collecting item: [206..-1] data: {'h7a}, size: 1, offset: 1, response: CFS_MD_OKAY, length: 1, prev_item_delay: 17, in_transaction: 1
# UVM_INFO ../alg_md_agent/cfs_md_driver_slave.sv(35) @ 206: uvm_test_top.env.md_tx_agent.driver [ITEM_START] Driving "uvm_test_top.env.md_tx_agent.sequencer.seq.item": length: 0, response: CFS_MD_OKAY, ready_at_end: 0
# UVM_INFO ../alg_tb/cfs_algn_model.sv(559) @ 215: uvm_test_top.env.model [TX_FIFO] TX FIFO push - new level: 2, pushed entry: [176..185] data: {'ha4}, size: 1, offset: 1, response: CFS_MD_OKAY, length: 0, prev_item_delay: 0, in_transaction: 0
# UVM_INFO ../alg_tb/cfs_algn_model.sv(574) @ 215: uvm_test_top.env.model [TX_FIFO] TX FIFO pop - new level: 1, popped entry: [176..185] data: {'h7a}, size: 1, offset: 1, response: CFS_MD_OKAY, length: 0, prev_item_delay: 0, in_transaction: 0
# UVM_INFO ../alg_tb/cfs_algn_scoreboard.sv(223) @ 215: uvm_test_top.env.scoreboard [SCO DEBUG] PUSHED AN ITEM TO EXP_TX
# UVM_INFO ../alg_tb/cfs_algn_scoreboard.sv(175) @ 215: uvm_test_top.env.scoreboard [SCO DEBUG] PUSHED A WATCHDOG PROCESS TO EXP_TX
# UVM_INFO ../alg_md_agent/cfs_md_monitor.sv(77) @ 215: uvm_test_top.env.md_tx_agent.monitor [ITEM_END] Monitored item: [206..215] data: {'h7a}, size: 1, offset: 1, response: CFS_MD_OKAY, length: 1, prev_item_delay: 17, in_transaction: 0
# UVM_INFO ../alg_md_agent/cfs_md_monitor.sv(55) @ 216: uvm_test_top.env.md_tx_agent.monitor [ITEM_START] Monitor started collecting item: [216..-1] data: {'ha4}, size: 1, offset: 1, response: CFS_MD_OKAY, length: 1, prev_item_delay: 0, in_transaction: 1
# UVM_INFO ../alg_md_agent/cfs_md_driver_slave.sv(35) @ 216: uvm_test_top.env.md_tx_agent.driver [ITEM_START] Driving "uvm_test_top.env.md_tx_agent.sequencer.seq.item": length: 0, response: CFS_MD_OKAY, ready_at_end: 0
# UVM_INFO ../alg_tb/cfs_algn_model.sv(574) @ 225: uvm_test_top.env.model [TX_FIFO] TX FIFO pop - new level: 0, popped entry: [176..185] data: {'ha4}, size: 1, offset: 1, response: CFS_MD_OKAY, length: 0, prev_item_delay: 0, in_transaction: 0
# UVM_INFO ../alg_tb/cfs_algn_scoreboard.sv(223) @ 225: uvm_test_top.env.scoreboard [SCO DEBUG] PUSHED AN ITEM TO EXP_TX
# UVM_INFO ../alg_tb/cfs_algn_scoreboard.sv(175) @ 225: uvm_test_top.env.scoreboard [SCO DEBUG] PUSHED A WATCHDOG PROCESS TO EXP_TX
# UVM_INFO ../alg_md_agent/cfs_md_monitor.sv(77) @ 225: uvm_test_top.env.md_tx_agent.monitor [ITEM_END] Monitored item: [216..225] data: {'ha4}, size: 1, offset: 1, response: CFS_MD_OKAY, length: 1, prev_item_delay: 0, in_transaction: 0
# UVM_INFO ../alg_md_agent/cfs_md_driver_master.sv(21) @ 235: uvm_test_top.env.md_rx_agent.driver [ITEM_START] Driving "uvm_test_top.env.md_rx_agent.sequencer.seq.item": data: {'h82}, offset: 3, pre_drive_delay: 0, post_drive_delay: 5
# UVM_INFO ../alg_md_agent/cfs_md_monitor.sv(55) @ 236: uvm_test_top.env.md_rx_agent.monitor [ITEM_START] Monitor started collecting item: [236..-1] data: {'h82}, size: 1, offset: 3, response: CFS_MD_OKAY, length: 1, prev_item_delay: 5, in_transaction: 1
# UVM_INFO ../alg_tb/cfs_algn_model.sv(529) @ 245: uvm_test_top.env.model [RX_FIFO] RX FIFO push - new level: 1, pushed entry: [236..-1] data: {'h82}, size: 1, offset: 3, response: CFS_MD_OKAY, length: 1, prev_item_delay: 5, in_transaction: 1
# UVM_INFO ../alg_md_agent/cfs_md_monitor.sv(77) @ 245: uvm_test_top.env.md_rx_agent.monitor [ITEM_END] Monitored item: [236..245] data: {'h82}, size: 1, offset: 3, response: CFS_MD_OKAY, length: 1, prev_item_delay: 5, in_transaction: 0
# UVM_INFO ../alg_tb/cfs_algn_model.sv(545) @ 255: uvm_test_top.env.model [RX_FIFO] RX FIFO pop - new level: 0, popped entry: [236..245] data: {'h82}, size: 1, offset: 3, response: CFS_MD_OKAY, length: 1, prev_item_delay: 5, in_transaction: 0
# UVM_INFO ../alg_tb/cfs_algn_model.sv(559) @ 265: uvm_test_top.env.model [TX_FIFO] TX FIFO push - new level: 1, pushed entry: [236..245] data: {'h82}, size: 1, offset: 1, response: CFS_MD_OKAY, length: 0, prev_item_delay: 0, in_transaction: 0
# UVM_INFO ../alg_md_agent/cfs_md_monitor.sv(55) @ 266: uvm_test_top.env.md_tx_agent.monitor [ITEM_START] Monitor started collecting item: [266..-1] data: {'h82}, size: 1, offset: 1, response: CFS_MD_OKAY, length: 1, prev_item_delay: 4, in_transaction: 1
# UVM_INFO ../alg_md_agent/cfs_md_driver_slave.sv(35) @ 266: uvm_test_top.env.md_tx_agent.driver [ITEM_START] Driving "uvm_test_top.env.md_tx_agent.sequencer.seq.item": length: 0, response: CFS_MD_OKAY, ready_at_end: 0
# UVM_WARNING verilog_src/uvm-1.1d/src/seq/uvm_sequencer_base.svh(709) @ 305: uvm_test_top.env.md_rx_agent.sequencer [SEQREQZMB] The task responsible for requesting a wait_for_grant on sequencer 'uvm_test_top.env.md_rx_agent.sequencer' for sequence 'uvm_test_top.env.md_rx_agent.sequencer.seq' has been killed, to avoid a deadlock the sequence will be removed from the arbitration queues
# UVM_INFO ../alg_apb_agent/cfs_apb_driver.sv(28) @ 345: uvm_test_top.env.apb_agent.driver [ITEM_START] Driving "default_parent_seq.item": dir: CFS_APB_WRITE, addr: 0, data: 301, pre_drive_delay: 0, post_drive_delay: 3
# UVM_INFO ../alg_apb_agent/cfs_apb_monitor.sv(64) @ 375: uvm_test_top.env.apb_agent.monitor [ITEM_END] Monitored item:: dir: CFS_APB_WRITE, addr: 0, data: 301, response: CFS_APB_OKAY, length: 3, prev_item_delay: 5
# UVM_INFO ../alg_md_agent/cfs_md_driver_master.sv(21) @ 405: uvm_test_top.env.md_rx_agent.driver [ITEM_START] Driving "uvm_test_top.env.md_rx_agent.sequencer.seq.item": data: {'h35}, offset: 3, pre_drive_delay: 2, post_drive_delay: 2
# UVM_INFO ../alg_md_agent/cfs_md_monitor.sv(55) @ 426: uvm_test_top.env.md_rx_agent.monitor [ITEM_START] Monitor started collecting item: [426..-1] data: {'h35}, size: 1, offset: 3, response: CFS_MD_OKAY, length: 1, prev_item_delay: 12, in_transaction: 1
# UVM_INFO ../alg_tb/cfs_algn_model.sv(529) @ 435: uvm_test_top.env.model [RX_FIFO] RX FIFO push - new level: 1, pushed entry: [426..-1] data: {'h35}, size: 1, offset: 3, response: CFS_MD_OKAY, length: 1, prev_item_delay: 12, in_transaction: 1
# UVM_INFO ../alg_md_agent/cfs_md_monitor.sv(77) @ 435: uvm_test_top.env.md_rx_agent.monitor [ITEM_END] Monitored item: [426..435] data: {'h35}, size: 1, offset: 3, response: CFS_MD_OKAY, length: 1, prev_item_delay: 12, in_transaction: 0
# UVM_INFO ../alg_tb/cfs_algn_model.sv(545) @ 445: uvm_test_top.env.model [RX_FIFO] RX FIFO pop - new level: 0, popped entry: [426..435] data: {'h35}, size: 1, offset: 3, response: CFS_MD_OKAY, length: 1, prev_item_delay: 12, in_transaction: 0
# UVM_INFO ../alg_tb/cfs_algn_model.sv(559) @ 455: uvm_test_top.env.model [TX_FIFO] TX FIFO push - new level: 1, pushed entry: [426..435] data: {'h35}, size: 1, offset: 3, response: CFS_MD_OKAY, length: 0, prev_item_delay: 0, in_transaction: 0
# UVM_INFO ../alg_md_agent/cfs_md_driver_master.sv(21) @ 455: uvm_test_top.env.md_rx_agent.driver [ITEM_START] Driving "uvm_test_top.env.md_rx_agent.sequencer.seq.item": data: {'h8d, 'h69}, offset: 0, pre_drive_delay: 4, post_drive_delay: 1
# UVM_INFO ../alg_md_agent/cfs_md_monitor.sv(55) @ 456: uvm_test_top.env.md_tx_agent.monitor [ITEM_START] Monitor started collecting item: [456..-1] data: {'h35}, size: 1, offset: 3, response: CFS_MD_OKAY, length: 1, prev_item_delay: 15, in_transaction: 1
# UVM_INFO ../alg_md_agent/cfs_md_driver_slave.sv(35) @ 456: uvm_test_top.env.md_tx_agent.driver [ITEM_START] Driving "uvm_test_top.env.md_tx_agent.sequencer.seq.item": length: 0, response: CFS_MD_OKAY, ready_at_end: 0
# UVM_INFO ../alg_tb/cfs_algn_model.sv(574) @ 465: uvm_test_top.env.model [TX_FIFO] TX FIFO pop - new level: 0, popped entry: [426..435] data: {'h35}, size: 1, offset: 3, response: CFS_MD_OKAY, length: 0, prev_item_delay: 0, in_transaction: 0
# UVM_INFO ../alg_tb/cfs_algn_scoreboard.sv(223) @ 465: uvm_test_top.env.scoreboard [SCO DEBUG] PUSHED AN ITEM TO EXP_TX
# UVM_INFO ../alg_tb/cfs_algn_scoreboard.sv(175) @ 465: uvm_test_top.env.scoreboard [SCO DEBUG] PUSHED A WATCHDOG PROCESS TO EXP_TX
# UVM_INFO ../alg_md_agent/cfs_md_monitor.sv(77) @ 465: uvm_test_top.env.md_tx_agent.monitor [ITEM_END] Monitored item: [456..465] data: {'h35}, size: 1, offset: 3, response: CFS_MD_OKAY, length: 1, prev_item_delay: 15, in_transaction: 0
# UVM_INFO ../alg_md_agent/cfs_md_monitor.sv(55) @ 496: uvm_test_top.env.md_rx_agent.monitor [ITEM_START] Monitor started collecting item: [496..-1] data: {'h8d, 'h69}, size: 2, offset: 0, response: CFS_MD_OKAY, length: 1, prev_item_delay: 6, in_transaction: 1
# UVM_WARNING verilog_src/uvm-1.1d/src/seq/uvm_sequencer_base.svh(709) @ 535: uvm_test_top.env.md_rx_agent.sequencer [SEQREQZMB] The task responsible for requesting a wait_for_grant on sequencer 'uvm_test_top.env.md_rx_agent.sequencer' for sequence 'uvm_test_top.env.md_rx_agent.sequencer.seq' has been killed, to avoid a deadlock the sequence will be removed from the arbitration queues
# UVM_INFO verilog_src/uvm-1.1d/src/base/uvm_objection.svh(1267) @ 1025: reporter [TEST_DONE] 'run' phase is ready to proceed to the 'extract' phase
# *****NUMBER OF BYTES LEFT IN ALIGNER WHICH ARE NOT TAKEN OUT AFTER TEST_DONE : 0*****
# ***** OVERALL FUNCTIONAL COVERAGE : 66.72% *****
# 
# --- UVM Report Summary ---
# 
# Quit count :     0 of     1
# ** Report counts by severity
# UVM_INFO :   49
# UVM_WARNING :    2
# UVM_ERROR :    0
# UVM_FATAL :    0
# ** Report counts by id
# [ITEM_END]     8
# [ITEM_START]    18
# [MAXQUITSET]     1
# [RNTST]     1
# [RX_FIFO]     6
# [SCO DEBUG]     6
# [SEQREQZMB]     2
# [TEST_DONE]     1
# [TX_FIFO]     7
# [UVMTOP]     1
# ** Note: $finish    : /home/abinashnayak/Downloads/questasim/linux_x86_64/../verilog_src/uvm-1.1d/src/base/uvm_root.svh(430)
#    Time: 1025 ns  Iteration: 53  Instance: /top
# Saving coverage database on exit...
# End time: 16:41:27 on Dec 04,2025, Elapsed time: 0:00:11
# Errors: 0, Warnings: 4
